local l = require "libs"

xpos = l.getPosition("x");
leng = 30

for i = 1, 5 do
ypos = 15 - leng / 6 * i;
l.moveToPoint(xpos, ypos, 1, "lin");
l.shoot(60);
l.shoot(-60);
end

l.moveToEnd(1, "lin");

--l.moveToPoint(1, 14, 3);
--l.loadScript("idle");