local l = require "libs"

l.spawn("RoundGuy");	l.startPoint(7, 14);	l.setPoint(7, 10);	l.endPoint(12, 10);
l.waiting(0.1);
l.spawn("RoundGuy");	l.startPoint(-7, 14);	l.setPoint(-7, 10);	l.endPoint(-12, 10);
l.waiting(0.1);
l.spawn("RoundGuy");	l.startPoint(7, -14);	l.setPoint(7, -10);	l.endPoint(12, -10);
l.waiting(0.1);
l.spawn("RoundGuy");	l.startPoint(-7, -14);	l.setPoint(-7, -10);	l.endPoint(-12, -10);
l.waiting(9);

l.loadScript("EpicenterOfTheCity_random");